<?xml version="1.0" encoding="UTF-8"?>
<!DOCTYPE svg PUBLIC "-//W3C//DTD SVG 1.1//EN" "http://www.w3.org/Graphics/SVG/1.1/DTD/svg11.dtd">
<svg xmlns="http://www.w3.org/2000/svg" xmlns:xlink="http://www.w3.org/1999/xlink">
<!--signmaster generated, see http://wegemeister.de/signmaster.html by Ervin Peters 2019 ff-->
    <defs/>
    <line id="line43" x1="1.000000" y1="2.000000" x2="3.000000" y2="4.000000" stroke="#000000" stroke-width="1.000000" fill="none"/>
</svg>
