{
    "name": "ChildArrays",
    "sign": {
        "size": "big",
        "pars": {
            "width": 500,
            "test": "blah01",
            "symbols": ["a", "b", {
                "file": "../sym"
            }, "g12", "ee"]
        }
    }
}