{
    "self": "https://wegemeister.de/Schemata/europe/de/de-th/Wanderwegweiser.json",
    "version": "1",
    "Schildernummer": "Erv-Example-2019-01",
    "Wegemarken": ["Goethewanderweg", "grüner Kreis"],
    "Richtung": 12,
    "Nahziel": {
        "Info": "",
        "Wegename": "Goethewanderweg",
        "Name": "Weimar",
        "Entfernung": 2500,
        "Zielsymbole": ["Tourist-Info", "Museum", "Bahnhof"]
    },
    "Fernziel": {
        "Info": "",
        "Name": "Erfurt",
        "Entfernung": 24500,
        "Zielsymbole": []
    }
}